898.17	19648.80
899.80	19588.53
901.42	19919.41
903.04	19834.90
904.67	20147.66
906.29	20064.20
907.91	20384.55
909.54	20324.90
911.16	20677.49
912.79	20678.97
914.41	21211.54
916.04	21554.65
917.66	22505.57
919.28	23200.64
920.91	24299.51
922.53	24642.41
924.16	25180.88
925.78	24893.42
927.41	24901.64
929.03	24186.97
930.66	23852.29
932.28	22892.94
933.91	22356.15
935.53	21265.92
937.16	20536.71
938.78	19372.50
940.41	18542.56
942.04	17297.21
943.66	16374.74
945.29	15021.49
946.91	13956.76
948.54	12548.08
950.17	11378.61
951.79	10007.65
953.42	8971.80
955.04	7918.45
956.67	7243.19
958.30	6611.98
959.92	6288.48
961.55	5950.43
963.18	5828.61
964.80	5632.19
966.43	5587.09
968.06	5458.53
969.68	5467.17
971.31	5363.69
972.94	5416.17
974.56	5356.52
976.19	5446.94
977.82	5430.92
979.44	5562.22
981.07	5609.85
982.70	5795.10
984.32	5877.51
985.95	6082.99
987.58	6197.22
989.21	6470.78
990.83	6615.99
992.46	6929.80
994.09	7097.14
995.71	7457.95
997.34	7656.90
998.97	8063.45
1000.60	8307.92
1002.22	8755.56
1003.85	9043.03
1005.48	9536.83
1007.11	9868.13
1008.73	10450.02
1010.36	10826.43
1011.99	11477.03
1013.61	11904.65
1015.24	12600.35
1016.87	13045.04
1018.50	13830.10
1020.12	14327.90
1021.75	15170.28
1023.38	15675.25
1025.01	16553.67
1026.63	17085.61
1028.26	17975.21
1029.89	18465.84
1031.51	19366.39
1033.14	19862.09
1034.77	20758.21
1036.40	21203.75
1038.02	22090.18
1039.65	22501.36
1041.28	23365.03
1042.91	23684.11
1044.53	24513.43
1046.16	24793.10
1047.79	25534.32
1049.41	25722.52
1051.04	26415.48
1052.67	26522.33
1054.29	27187.05
1055.92	27177.99
1057.55	27723.00
1059.17	27648.60
1060.80	28096.88
1062.43	27940.29
1064.05	28354.63
1065.68	28111.00
1067.31	28456.42
1068.93	28143.66
1070.56	28404.58
1072.19	28049.03
1073.81	28233.44
1075.44	27781.80
1077.07	27906.99
1078.69	27393.38
1080.32	27425.62
1081.94	26855.32
1083.57	26850.06
1085.20	26209.36
1086.82	25996.92
1088.45	25438.21
1090.07	25305.65
1091.70	24601.52
1093.33	24391.82
1094.95	23669.78
1096.58	23411.60
1098.20	22731.50
1099.83	22489.56
1101.45	21817.46
1103.08	21563.71
1104.70	20917.54
1106.33	20682.34
1107.95	20049.24
1109.58	19828.15
1111.20	19192.73
1112.83	18922.76
1114.45	18290.07
1116.07	17973.52
1117.70	17288.78
1119.32	16875.28
1120.95	16057.13
1122.57	15436.89
1124.20	14504.93
1125.82	13739.26
1127.44	12576.11
1129.07	11520.23
1130.69	10177.94
1132.31	8918.90
1133.94	7498.84
1135.56	6282.58
1137.18	5075.80
1138.81	4129.09
1140.43	3295.14
1142.05	2698.07
1143.67	2197.74
1145.30	1872.13
1146.92	1602.36
1148.54	1441.35
1150.16	1299.51
1151.78	1230.59
1153.41	1160.20
1155.03	1131.33
1156.65	1097.40
1158.27	1088.54
1159.89	1064.52
1161.51	1068.10
1163.13	1057.14
1164.75	1062.20
1166.37	1047.24
1168.00	1056.09
1169.62	1049.98
1171.24	1056.30
1172.86	1043.65
1174.48	1053.77
1176.10	1050.19
1177.72	1058.83
1179.33	1054.82
1180.95	1067.89
1182.57	1057.98
1184.19	1071.89
1185.81	1060.30
1187.43	1078.43
1189.05	1068.31
1190.67	1084.54
1192.28	1077.16
1193.90	1100.14
1195.52	1098.66
1197.14	1110.25
1198.75	1112.99
1200.37	1137.23
1201.99	1129.22
1203.61	1152.40
1205.22	1158.94
1206.84	1173.90
1208.46	1178.75
1210.07	1195.61
1211.69	1195.82
1213.30	1233.75
1214.92	1228.48
1216.53	1258.41
1218.15	1261.99
1219.76	1280.54
1221.38	1285.81
1222.99	1307.73
1224.61	1318.48
1226.22	1342.29
1227.84	1342.50
1229.45	1366.74
1231.06	1370.53
1232.68	1401.51
1234.29	1410.15
1235.90	1433.34
1237.52	1444.51
1239.13	1475.70
1240.74	1480.55
1242.35	1507.52
1243.96	1512.58
1245.58	1543.56
1247.19	1547.36
1248.80	1568.01
1250.41	1586.13
1252.02	1609.74
1253.63	1613.95
1255.24	1638.19
1256.85	1636.08
1258.46	1670.65
1260.07	1663.06
1261.68	1698.68
1263.29	1690.25
1264.90	1724.81
1266.51	1714.27
1268.11	1738.09
1269.72	1726.29
1271.33	1753.68
1272.94	1731.98
1274.55	1762.54
1276.15	1748.84
1277.76	1759.58
1279.37	1741.88
1280.97	1754.32
1282.58	1742.09
1284.18	1752.84
1285.79	1734.08
1287.40	1742.51
1289.00	1729.66
1290.61	1732.61
1292.21	1719.96
1293.81	1726.92
1295.42	1711.74
1297.02	1715.75
1298.63	1701.63
1300.23	1705.21
1301.83	1702.26
1303.43	1700.36
1305.04	1695.30
1306.64	1692.14
1308.24	1688.14
1309.84	1696.36
1311.44	1683.08
1313.04	1691.93
1314.64	1697.41
1316.24	1704.79
1317.84	1701.84
1319.44	1717.22
1321.04	1703.95
1322.64	1728.18
1324.24	1720.60
1325.84	1739.35
1327.44	1734.51
1329.04	1759.16
1330.63	1747.36
1332.23	1768.86
1333.83	1766.54
1335.42	1781.92
1337.02	1774.34
1338.62	1801.10
1340.21	1793.09
1341.81	1825.55
1343.40	1823.44
1345.00	1848.94
1346.59	1839.46
1348.19	1874.24
1349.78	1861.80
1351.37	1900.79
1352.97	1895.10
1354.56	1925.87
1356.15	1915.54
1357.75	1941.47
1359.34	1948.84
1360.93	1973.29
1362.52	1958.54
1364.11	1999.63
1365.70	1984.88
1367.29	2023.24
1368.88	2009.33
1370.47	2050.43
1372.06	2042.21
1373.65	2061.81
1375.24	2062.23
1376.83	2091.73
1378.41	2075.72
1380.00	2114.49
1381.59	2091.31
1383.17	2118.92
1384.76	2114.07
1386.35	2140.63
1387.93	2123.77
1389.52	2158.33
1391.10	2141.89
1392.69	2170.13
1394.27	2161.70
1395.85	2192.47
1397.44	2179.62
1399.02	2211.44
1400.60	2208.91
1402.19	2226.40
1403.77	2218.19
1405.35	2251.27
1406.93	2237.57
1408.51	2256.33
1410.09	2249.80
1411.67	2276.99
1413.25	2255.28
1414.83	2287.10
1416.41	2262.02
1417.99	2289.63
1419.56	2276.99
1421.14	2302.28
1422.72	2280.78
1424.30	2304.81
1425.87	2286.26
1427.45	2313.66
1429.02	2289.42
1430.60	2314.71
1432.17	2288.58
1433.75	2321.88
1435.32	2285.84
1436.90	2322.30
1438.47	2292.58
1440.04	2319.14
1441.61	2291.74
1443.19	2317.66
1444.76	2298.48
1446.33	2323.14
1447.90	2291.95
1449.47	2317.24
1451.04	2299.12
1452.61	2319.98
1454.18	2296.59
1455.75	2319.56
1457.31	2289.21
1458.88	2313.45
1460.45	2283.31
1462.02	2301.01
1463.58	2271.30
1465.15	2288.16
1466.71	2267.92
1468.28	2280.15
1469.84	2257.81
1471.41	2284.57
1472.97	2261.81
1474.53	2293.42
1476.10	2263.50
1477.66	2301.01
1479.22	2271.93
1480.78	2310.07
1482.34	2289.63
1483.90	2322.93
1485.46	2295.53
1487.02	2332.62
1488.58	2310.50
1490.14	2349.91
1491.70	2322.09
1493.26	2354.96
1494.82	2336.42
1496.37	2362.34
1497.93	2350.12
1499.48	2382.78
1501.04	2366.56
1502.59	2396.90
1504.15	2379.62
1505.70	2402.38
1507.26	2377.30
1508.81	2414.19
1510.36	2379.41
1511.91	2415.03
1513.46	2381.10
1515.02	2407.23
1516.57	2378.36
1518.12	2403.86
1519.67	2375.20
1521.22	2399.01
1522.76	2380.04
1524.31	2399.43
1525.86	2382.36
1527.41	2403.44
1528.95	2387.42
1530.50	2413.98
1532.04	2398.17
1533.59	2425.99
1535.13	2398.17
1536.68	2431.05
1538.22	2400.28
1539.76	2443.69
1541.31	2417.77
1542.85	2444.11
1544.39	2431.68
1545.93	2454.86
1547.47	2439.69
1549.01	2475.73
1550.55	2449.17
1552.09	2479.73
1553.63	2450.65
1555.17	2492.59
1556.70	2456.13
1558.24	2493.43
1559.78	2460.34
1561.31	2487.53
1562.85	2455.49
1564.38	2485.42
1565.91	2458.66
1567.45	2487.11
1568.98	2447.91
1570.51	2485.42
1572.04	2447.28
1573.58	2481.42
1575.11	2446.85
1576.64	2474.46
1578.17	2442.85
1579.70	2474.88
1581.22	2447.70
1582.75	2475.73
1584.28	2439.27
1585.81	2474.46
1587.33	2437.16
1588.86	2472.35
1590.38	2439.48
1591.91	2462.87
1593.43	2432.10
1594.95	2463.50
1596.48	2428.73
1598.00	2467.72
1599.52	2431.68
1601.04	2464.56
1602.56	2433.79
1604.08	2465.19
1605.60	2426.62
1607.12	2454.65
1608.64	2425.15
1610.16	2457.81
1611.67	2418.19
1613.19	2446.85
1614.71	2415.87
1616.22	2446.01
1617.74	2410.81
1619.25	2437.79
1620.76	2406.60
1622.28	2432.94
1623.79	2399.22
1625.30	2427.46
1626.81	2393.74
1628.32	2427.46
1629.83	2389.32
1631.34	2428.94
1632.85	2394.80
1634.36	2414.40
1635.86	2386.37
1637.37	2408.71
1638.88	2381.31
1640.38	2404.07
1641.89	2367.82
1643.39	2394.59
1644.89	2353.70
1646.40	2387.84
1647.90	2341.06
1649.40	2370.14
1650.90	2327.15
1652.40	2340.63
1653.90	2291.32
1655.40	2318.08
1656.90	2280.99
1658.40	2290.05
1659.90	2255.07
1661.39	2263.92
1662.89	2225.98
1664.38	2245.16
1665.88	2203.01
1667.37	2230.20
1668.87	2188.05
1670.36	2205.12
1671.85	2172.45
1673.34	2187.63
1674.83	2163.39
1676.32	2172.66
1677.81	2152.22
1679.30	2165.08
1680.79	2136.83
1682.28	2161.70
1683.76	2132.83
1685.25	2159.39
1686.74	2134.31
1688.22	2156.86
1689.70	2129.25
1691.19	2158.75
1692.67	2126.30
1694.15	2156.65
1695.63	2124.40
1697.12	2158.33
1698.60	2133.04
1700.07	2164.02
1701.55	2135.99
1703.03	2170.34
1704.51	2134.73
1705.99	2175.19
1707.46	2135.36
