898.17	10045.17
899.80	10027.25
901.42	10181.31
903.04	10158.76
904.67	10310.08
906.29	10287.95
907.91	10434.85
909.54	10428.74
911.16	10601.14
912.79	10627.48
914.41	10889.45
916.04	11089.45
917.66	11555.85
919.28	11942.58
920.91	12494.76
922.53	12687.18
924.16	12951.04
925.78	12824.38
927.41	12825.85
929.03	12481.48
930.66	12302.55
932.28	11837.21
933.91	11555.22
935.53	11014.00
937.16	10635.28
938.78	10067.30
940.41	9647.05
942.04	9025.33
943.66	8557.66
945.29	7863.44
946.91	7314.22
948.54	6595.97
950.17	5981.62
951.79	5277.07
953.42	4737.75
955.04	4198.22
956.67	3845.21
958.30	3527.39
959.92	3357.10
961.55	3190.60
963.18	3118.53
964.80	3018.63
966.43	2995.87
968.06	2931.59
969.68	2940.02
971.31	2884.80
972.94	2921.89
974.56	2886.49
976.19	2934.96
977.82	2932.85
979.44	2994.18
981.07	3035.07
982.70	3127.59
984.32	3180.49
985.95	3287.76
987.58	3355.41
989.21	3506.31
990.83	3585.77
992.46	3752.26
994.09	3845.21
995.71	4041.42
997.34	4137.52
998.97	4362.82
1000.60	4491.38
1002.22	4736.06
1003.85	4895.39
1005.48	5159.89
1007.11	5344.72
1008.73	5669.07
1010.36	5871.82
1011.99	6224.41
1013.61	6462.77
1015.24	6833.49
1016.87	7102.83
1018.50	7527.29
1020.12	7824.66
1021.75	8277.36
1023.38	8564.62
1025.01	9056.73
1026.63	9344.20
1028.26	9849.80
1029.89	10110.92
1031.51	10589.12
1033.14	10873.64
1034.77	11381.14
1036.40	11650.27
1038.02	12143.01
1039.65	12383.48
1041.28	12850.93
1042.91	13060.84
1044.53	13532.30
1046.16	13713.97
1047.79	14136.74
1049.41	14259.19
1051.04	14626.54
1052.67	14709.99
1054.29	15073.55
1055.92	15079.24
1057.55	15418.76
1059.17	15430.14
1060.80	15661.34
1062.43	15632.89
1064.05	15868.51
1065.68	15771.14
1067.31	15979.58
1068.93	15833.52
1070.56	15983.79
1072.19	15812.03
1073.81	15893.17
1075.44	15680.31
1077.07	15794.32
1078.69	15524.98
1080.32	15522.03
1081.94	15208.01
1083.57	15246.36
1085.20	14932.13
1086.82	14832.65
1088.45	14547.50
1090.07	14462.99
1091.70	14084.06
1093.33	13976.78
1094.95	13619.76
1096.58	13497.11
1098.20	13149.57
1099.83	13008.16
1101.45	12626.06
1103.08	12445.02
1104.70	12109.29
1106.33	12007.50
1107.95	11704.43
1109.58	11599.27
1111.20	11260.80
1112.83	11107.79
1114.45	10779.85
1116.07	10618.84
1117.70	10233.37
1119.32	10021.35
1120.95	9540.83
1122.57	9146.51
1124.20	8622.58
1125.82	8162.92
1127.44	7507.06
1129.07	6901.14
1130.69	6166.87
1132.31	5420.17
1133.94	4598.65
1135.56	3867.97
1137.18	3144.66
1138.81	2564.88
1140.43	2081.20
1142.05	1717.22
1143.67	1426.38
1145.30	1226.38
1146.92	1067.68
1148.54	972.42
1150.16	884.32
1151.78	835.64
1153.41	795.81
1155.03	776.21
1156.65	753.87
1158.27	756.61
1159.89	733.63
1161.51	743.75
1163.13	733.85
1164.75	738.06
1166.37	730.68
1168.00	734.27
1169.62	738.06
1171.24	734.06
1172.86	730.26
1174.48	735.32
1176.10	735.53
1177.72	736.16
1179.33	740.17
1180.95	738.69
1182.57	738.48
1184.19	746.91
1185.81	733.63
1187.43	755.97
1189.05	742.49
1190.67	757.45
1192.28	749.02
1193.90	770.31
1195.52	763.14
1197.14	775.15
1198.75	778.53
1200.37	790.54
1201.99	787.59
1203.61	794.75
1205.22	801.08
1206.84	820.04
1208.46	810.35
1210.07	829.95
1211.69	825.31
1213.30	847.86
1214.92	841.96
1216.53	871.26
1218.15	859.45
1219.76	876.74
1221.38	879.27
1222.99	895.28
1224.61	901.61
1226.22	921.63
1227.84	911.51
1229.45	936.80
1231.06	928.79
1232.68	951.76
1234.29	955.35
1235.90	971.15
1237.52	979.16
1239.13	995.39
1240.74	998.76
1242.35	1014.36
1243.96	1018.57
1245.58	1037.12
1247.19	1037.75
1248.80	1053.35
1250.41	1062.62
1252.02	1080.11
1253.63	1078.22
1255.24	1097.40
1256.85	1095.92
1258.46	1106.04
1260.07	1113.62
1261.68	1128.59
1263.29	1125.00
1264.90	1144.18
1266.51	1143.76
1268.11	1147.77
1269.72	1141.65
1271.33	1157.46
1272.94	1141.44
1274.55	1164.20
1276.15	1153.46
1277.76	1155.56
1279.37	1156.41
1280.97	1148.61
1282.58	1147.13
1284.18	1144.18
1285.79	1136.60
1287.40	1138.70
1289.00	1121.63
1290.61	1135.33
1292.21	1116.15
1293.81	1123.95
1295.42	1108.36
1297.02	1109.41
1298.63	1097.19
1300.23	1099.50
1301.83	1090.86
1303.43	1090.65
1305.04	1092.13
1306.64	1079.27
1308.24	1078.85
1309.84	1078.22
1311.44	1073.16
1313.04	1073.37
1314.64	1070.21
1316.24	1079.48
1317.84	1069.37
1319.44	1083.28
1321.04	1071.26
1322.64	1083.91
1324.24	1079.27
1325.84	1085.38
1327.44	1084.12
1329.04	1091.28
1330.63	1091.49
1332.23	1099.08
1333.83	1096.76
1335.42	1105.62
1337.02	1091.92
1338.62	1112.57
1340.21	1105.19
1341.81	1122.48
1343.40	1118.89
1345.00	1138.91
1346.59	1119.31
1348.19	1148.40
1349.78	1134.91
1351.37	1158.94
1352.97	1153.88
1354.56	1173.90
1356.15	1159.99
1357.75	1176.01
1359.34	1177.69
1360.93	1191.60
1362.52	1185.91
1364.11	1201.30
1365.70	1198.77
1367.29	1209.52
1368.88	1205.51
1370.47	1223.01
1372.06	1223.85
1373.65	1231.86
1375.24	1231.65
1376.83	1248.30
1378.41	1232.49
1380.00	1253.35
1381.59	1236.70
1383.17	1259.25
1384.76	1249.98
1386.35	1268.32
1387.93	1253.78
1389.52	1269.58
1391.10	1257.36
1392.69	1270.64
1394.27	1272.11
1395.85	1277.59
1397.44	1276.54
1399.02	1289.81
1400.60	1291.29
1402.19	1294.45
1403.77	1293.82
1405.35	1304.78
1406.93	1304.36
1408.51	1308.15
1410.09	1305.83
1411.67	1309.63
1413.25	1312.15
1414.83	1314.05
1416.41	1304.78
1417.99	1313.63
1419.56	1307.94
1421.14	1320.37
1422.72	1304.78
1424.30	1321.64
1425.87	1304.36
1427.45	1321.85
1429.02	1303.93
1430.60	1316.37
1432.17	1302.25
1433.75	1321.43
1435.32	1298.46
1436.90	1312.15
1438.47	1300.14
1440.04	1305.41
1441.61	1295.50
1443.19	1306.04
1444.76	1295.08
1446.33	1304.57
1447.90	1292.76
1449.47	1298.46
1451.04	1292.76
1452.61	1298.03
1454.18	1288.34
1455.75	1291.50
1457.31	1280.33
1458.88	1297.40
1460.45	1273.80
1462.02	1284.55
1463.58	1264.31
1465.15	1272.74
1466.71	1259.25
1468.28	1267.26
1469.84	1256.09
1471.41	1264.10
1472.97	1254.20
1474.53	1268.53
1476.10	1251.67
1477.66	1273.16
1479.22	1251.25
1480.78	1275.27
1482.34	1260.94
1483.90	1276.54
1485.46	1265.37
1487.02	1279.49
1488.58	1270.42
1490.14	1278.22
1491.70	1274.85
1493.26	1286.02
1494.82	1275.69
1496.37	1289.18
1497.93	1278.43
1499.48	1293.19
1501.04	1287.92
1502.59	1301.62
1504.15	1293.61
1505.70	1303.30
1507.26	1291.29
1508.81	1305.62
1510.36	1291.71
1511.91	1306.89
1513.46	1287.29
1515.02	1300.98
1516.57	1289.81
1518.12	1297.40
1519.67	1277.80
1521.22	1293.19
1522.76	1278.22
1524.31	1291.50
1525.86	1277.17
1527.41	1287.07
1528.95	1279.28
1530.50	1294.24
1532.04	1283.07
1533.59	1296.77
1535.13	1280.75
1536.68	1302.04
1538.22	1279.49
1539.76	1312.36
1541.31	1282.65
1542.85	1310.68
1544.39	1286.65
1545.93	1307.73
1547.47	1295.29
1549.01	1317.63
1550.55	1302.04
1552.09	1313.21
1553.63	1299.30
1555.17	1320.37
1556.70	1302.04
1558.24	1319.53
1559.78	1306.25
1561.31	1313.63
1562.85	1308.36
1564.38	1312.15
1565.91	1308.15
1567.45	1304.99
1568.98	1297.61
1570.51	1303.72
1572.04	1289.81
1573.58	1304.36
1575.11	1291.92
1576.64	1298.03
1578.17	1283.70
1579.70	1299.51
1581.22	1286.23
1582.75	1305.41
1584.28	1280.12
1585.81	1304.57
1587.33	1280.96
1588.86	1300.98
1590.38	1274.64
1591.91	1296.35
1593.43	1270.21
1594.95	1291.29
1596.48	1270.64
1598.00	1288.34
1599.52	1267.69
1601.04	1289.81
1602.56	1273.59
1604.08	1286.65
1605.60	1267.05
1607.12	1282.65
1608.64	1269.16
1610.16	1284.55
1611.67	1263.26
1613.19	1274.43
1614.71	1254.62
1616.22	1275.90
1617.74	1261.57
1619.25	1268.11
1620.76	1255.67
1622.28	1261.57
1623.79	1248.72
1625.30	1261.99
1626.81	1247.87
1628.32	1257.36
1629.83	1245.35
1631.34	1260.31
1632.85	1243.87
1634.36	1257.36
1635.86	1237.97
1637.37	1248.30
1638.88	1235.44
1640.38	1252.72
1641.89	1228.06
1643.39	1234.18
1644.89	1224.69
1646.40	1230.80
1647.90	1215.63
1649.40	1221.53
1650.90	1209.10
1652.40	1205.51
1653.90	1187.81
1655.40	1197.93
1656.90	1183.59
1658.40	1183.81
1659.90	1168.42
1661.39	1168.00
1662.89	1161.47
1664.38	1154.72
1665.88	1147.98
1667.37	1147.77
1668.87	1127.96
1670.36	1136.17
1671.85	1120.37
1673.34	1128.80
1674.83	1116.15
1676.32	1120.79
1677.81	1110.04
1679.30	1117.42
1680.79	1109.41
1682.28	1113.62
1683.76	1101.82
1685.25	1108.78
1686.74	1101.19
1688.22	1111.09
1689.70	1098.24
1691.19	1117.42
1692.67	1097.19
1694.15	1112.15
1695.63	1091.71
1697.12	1108.57
1698.60	1101.40
1700.07	1111.09
1701.55	1106.67
1703.03	1116.15
1704.51	1100.56
1705.99	1118.26
1707.46	1102.03
