898.17	10536.22
899.80	10517.89
901.42	10688.60
903.04	10678.27
904.67	10835.07
906.29	10817.79
907.91	10969.11
909.54	10963.42
911.16	11155.84
912.79	11181.76
914.41	11455.32
916.04	11665.65
917.66	12155.02
919.28	12568.52
920.91	13146.20
922.53	13337.99
924.16	13621.03
925.78	13495.84
927.41	13480.67
929.03	13126.60
930.66	12899.83
932.28	12403.08
933.91	12084.00
935.53	11520.23
937.16	11135.61
938.78	10531.17
940.41	10081.42
942.04	9417.12
943.66	8922.90
945.29	8198.12
946.91	7598.73
948.54	6849.50
950.17	6189.42
951.79	5470.54
953.42	4884.22
955.04	4342.59
956.67	3973.34
958.30	3658.27
959.92	3479.55
961.55	3316.64
963.18	3246.45
964.80	3151.83
966.43	3130.75
968.06	3070.90
969.68	3081.01
971.31	3023.27
972.94	3058.04
974.56	3031.06
976.19	3077.64
977.82	3073.00
979.44	3155.83
981.07	3187.02
982.70	3294.93
984.32	3350.36
985.95	3469.01
987.58	3543.20
989.21	3711.80
990.83	3816.54
992.46	4003.06
994.09	4118.98
995.71	4328.68
997.34	4454.29
998.97	4684.22
1000.60	4855.56
1002.22	5106.36
1003.85	5304.89
1005.48	5589.20
1007.11	5805.85
1008.73	6152.33
1010.36	6385.85
1011.99	6750.87
1013.61	7012.21
1015.24	7417.91
1016.87	7710.43
1018.50	8151.33
1020.12	8463.04
1021.75	8953.04
1023.38	9268.75
1025.01	9762.33
1026.63	10074.04
1028.26	10594.39
1029.89	10881.65
1031.51	11393.15
1033.14	11710.97
1034.77	12229.00
1036.40	12531.85
1038.02	13032.60
1039.65	13297.31
1041.28	13804.60
1042.91	14041.48
1044.53	14526.22
1046.16	14753.20
1047.79	15197.05
1049.41	15338.67
1051.04	15700.75
1052.67	15780.41
1054.29	16148.18
1055.92	16200.03
1057.55	16521.85
1059.17	16542.50
1060.80	16772.22
1062.43	16782.97
1064.05	17014.59
1065.68	16908.16
1067.31	17076.13
1068.93	16965.91
1070.56	17125.45
1072.19	16952.21
1073.81	16997.31
1075.44	16798.57
1077.07	16930.92
1078.69	16643.45
1080.32	16613.95
1081.94	16298.24
1083.57	16321.21
1085.20	15977.47
1086.82	15845.33
1088.45	15523.08
1090.07	15431.19
1091.70	15039.61
1093.33	14934.24
1094.95	14565.00
1096.58	14434.33
1098.20	14037.27
1099.83	13853.28
1101.45	13461.91
1103.08	13267.17
1104.70	12893.93
1106.33	12780.96
1107.95	12482.96
1109.58	12368.31
1111.20	11982.00
1112.83	11840.16
1114.45	11496.42
1116.07	11300.63
1117.70	10897.24
1119.32	10640.34
1120.95	10105.86
1122.57	9663.49
1124.20	9100.99
1125.82	8600.45
1127.44	7890.00
1129.07	7239.61
1130.69	6458.77
1132.31	5681.29
1133.94	4788.54
1135.56	4011.91
1137.18	3233.81
1138.81	2630.42
1140.43	2119.13
1142.05	1753.68
1143.67	1450.62
1145.30	1252.72
1146.92	1086.44
1148.54	993.28
1150.16	909.61
1151.78	861.77
1153.41	816.67
1155.03	792.65
1156.65	771.99
1158.27	767.57
1159.89	752.60
1161.51	750.07
1163.13	747.33
1164.75	747.33
1166.37	742.06
1168.00	744.80
1169.62	742.70
1171.24	746.07
1172.86	739.11
1174.48	748.39
1176.10	742.49
1177.72	748.60
1179.33	749.23
1180.95	754.29
1182.57	747.33
1184.19	755.34
1185.81	745.23
1187.43	763.56
1189.05	747.12
1190.67	765.67
1192.28	750.07
1193.90	764.62
1195.52	771.15
1197.14	769.67
1198.75	781.69
1200.37	791.59
1201.99	791.38
1203.61	799.60
1205.22	806.77
1206.84	821.52
1208.46	820.25
1210.07	831.64
1211.69	832.27
1213.30	852.50
1214.92	847.23
1216.53	860.30
1218.15	872.31
1219.76	872.31
1221.38	884.11
1222.99	889.80
1224.61	897.60
1226.22	919.73
1227.84	917.62
1229.45	938.70
1231.06	934.06
1232.68	954.29
1234.29	956.19
1235.90	977.69
1237.52	979.16
1239.13	1000.66
1240.74	1000.24
1242.35	1024.69
1243.96	1016.04
1245.58	1042.81
1247.19	1035.43
1248.80	1053.98
1250.41	1060.30
1252.02	1078.64
1253.63	1083.49
1255.24	1102.45
1256.85	1100.98
1258.46	1115.94
1260.07	1117.63
1261.68	1136.39
1263.29	1134.70
1264.90	1148.19
1266.51	1148.40
1268.11	1154.72
1269.72	1148.19
1271.33	1163.15
1272.94	1144.18
1274.55	1165.05
1276.15	1151.14
1277.76	1156.20
1279.37	1154.30
1280.97	1156.41
1282.58	1149.45
1284.18	1148.82
1285.79	1133.43
1287.40	1138.49
1289.00	1129.43
1290.61	1133.65
1292.21	1112.15
1293.81	1118.26
1295.42	1110.04
1297.02	1103.93
1298.63	1097.61
1300.23	1086.65
1301.83	1088.54
1303.43	1083.28
1305.04	1081.38
1306.64	1080.32
1308.24	1071.89
1309.84	1082.22
1311.44	1069.37
1313.04	1067.89
1314.64	1077.80
1316.24	1070.63
1317.84	1069.15
1319.44	1082.85
1321.04	1064.73
1322.64	1084.54
1324.24	1067.47
1325.84	1085.17
1327.44	1076.11
1329.04	1091.71
1330.63	1083.91
1332.23	1091.07
1333.83	1098.45
1335.42	1100.14
1337.02	1094.02
1338.62	1110.46
1340.21	1106.46
1341.81	1126.06
1343.40	1114.47
1345.00	1143.55
1346.59	1116.79
1348.19	1149.24
1349.78	1130.91
1351.37	1154.93
1352.97	1148.82
1354.56	1165.05
1356.15	1161.25
1357.75	1175.37
1359.34	1180.43
1360.93	1190.76
1362.52	1184.86
1364.11	1201.30
1365.70	1200.67
1367.29	1212.68
1368.88	1208.46
1370.47	1221.95
1372.06	1227.64
1373.65	1224.27
1375.24	1234.39
1376.83	1236.07
1378.41	1229.12
1380.00	1253.14
1381.59	1237.34
1383.17	1255.67
1384.76	1249.35
1386.35	1262.42
1387.93	1257.99
1389.52	1274.01
1391.10	1261.15
1392.69	1270.21
1394.27	1270.42
1395.85	1288.34
1397.44	1271.48
1399.02	1294.03
1400.60	1286.02
1402.19	1295.93
1403.77	1284.55
1405.35	1307.10
1406.93	1297.40
1408.51	1310.26
1410.09	1305.62
1411.67	1313.63
1413.25	1307.52
1414.83	1323.11
1416.41	1309.63
1417.99	1320.16
1419.56	1314.68
1421.14	1325.64
1422.72	1309.20
1424.30	1322.90
1425.87	1311.94
1427.45	1319.11
1429.02	1308.99
1430.60	1320.80
1432.17	1304.36
1433.75	1324.80
1435.32	1299.51
1436.90	1319.11
1438.47	1304.15
1440.04	1314.05
1441.61	1304.15
1443.19	1312.15
1444.76	1302.88
1446.33	1315.10
1447.90	1301.41
1449.47	1305.83
1451.04	1299.30
1452.61	1298.67
1454.18	1292.34
1455.75	1299.09
1457.31	1287.50
1458.88	1295.29
1460.45	1279.07
1462.02	1289.81
1463.58	1271.27
1465.15	1285.60
1466.71	1271.27
1468.28	1279.28
1469.84	1256.52
1471.41	1280.96
1472.97	1262.63
1474.53	1281.81
1476.10	1261.15
1477.66	1273.80
1479.22	1262.21
1480.78	1284.12
1482.34	1267.47
1483.90	1286.02
1485.46	1272.32
1487.02	1288.13
1488.58	1281.38
1490.14	1294.66
1491.70	1291.08
1493.26	1298.88
1494.82	1292.76
1496.37	1305.62
1497.93	1298.67
1499.48	1305.83
1501.04	1312.36
1502.59	1311.10
1504.15	1310.05
1505.70	1316.79
1507.26	1302.67
1508.81	1322.69
1510.36	1302.88
1511.91	1321.43
1513.46	1304.99
1515.02	1321.43
1516.57	1304.36
1518.12	1318.27
1519.67	1302.25
1521.22	1309.63
1522.76	1308.57
1524.31	1306.89
1525.86	1305.62
1527.41	1304.57
1528.95	1309.63
1530.50	1307.31
1532.04	1310.05
1533.59	1318.90
1535.13	1299.51
1536.68	1321.85
1538.22	1306.67
1539.76	1333.23
1541.31	1316.58
1542.85	1335.55
1544.39	1321.01
1545.93	1337.87
1547.47	1324.17
1549.01	1352.41
1550.55	1326.70
1552.09	1345.03
1553.63	1328.17
1555.17	1353.25
1556.70	1325.85
1558.24	1348.40
1559.78	1328.17
1561.31	1340.18
1562.85	1330.70
1564.38	1343.56
1565.91	1330.07
1567.45	1346.30
1568.98	1322.90
1570.51	1343.56
1572.04	1322.06
1573.58	1339.55
1575.11	1322.69
1576.64	1333.86
1578.17	1321.22
1579.70	1334.07
1581.22	1316.37
1582.75	1333.44
1584.28	1308.57
1585.81	1334.70
1587.33	1308.15
1588.86	1329.23
1590.38	1315.53
1591.91	1319.53
1593.43	1307.10
1594.95	1330.07
1596.48	1306.89
1598.00	1323.96
1599.52	1308.57
1601.04	1320.80
1602.56	1314.05
1604.08	1315.32
1605.60	1302.67
1607.12	1313.63
1608.64	1300.35
1610.16	1320.80
1611.67	1298.67
1613.19	1311.94
1614.71	1292.55
1616.22	1307.52
1617.74	1291.50
1619.25	1309.41
1620.76	1293.82
1622.28	1307.52
1623.79	1284.12
1625.30	1301.83
1626.81	1286.02
1628.32	1297.40
1629.83	1278.43
1631.34	1295.72
1632.85	1284.76
1634.36	1287.50
1635.86	1276.12
1637.37	1291.29
1638.88	1270.64
1640.38	1287.29
1641.89	1271.48
1643.39	1275.27
1644.89	1267.47
1646.40	1272.32
1647.90	1254.83
1649.40	1263.89
1650.90	1243.03
1652.40	1249.14
1653.90	1226.17
1655.40	1231.65
1656.90	1217.53
1658.40	1220.69
1659.90	1207.20
1661.39	1205.93
1662.89	1191.81
1664.38	1200.88
1665.88	1183.59
1667.37	1190.55
1668.87	1171.16
1670.36	1184.65
1671.85	1164.84
1673.34	1169.90
1674.83	1154.51
1676.32	1169.68
1677.81	1146.92
1679.30	1158.73
1680.79	1147.34
1682.28	1156.20
1683.76	1140.18
1685.25	1156.83
1686.74	1145.66
1688.22	1152.40
1689.70	1143.34
1691.19	1158.51
1692.67	1140.81
1694.15	1156.20
1695.63	1141.02
1697.12	1155.56
1698.60	1142.92
1700.07	1159.57
1701.55	1146.50
1703.03	1166.10
1704.51	1142.08
1705.99	1163.78
1707.46	1145.66
