898.17	21469.93
899.80	21415.76
901.42	21725.99
903.04	21661.29
904.67	21944.76
906.29	21848.44
907.91	22140.34
909.54	22113.15
911.16	22419.16
912.79	22463.21
914.41	22991.99
916.04	23389.05
917.66	24332.39
919.28	25113.02
920.91	26231.07
922.53	26628.97
924.16	27169.35
925.78	26901.06
927.41	26877.45
929.03	26104.41
930.66	25657.19
932.28	24645.78
933.91	23962.94
935.53	22839.83
937.16	22039.81
938.78	20813.01
940.41	19899.60
942.04	18608.31
943.66	17583.63
945.29	16160.82
946.91	14978.07
948.54	13495.00
950.17	12241.22
951.79	10782.81
953.42	9652.11
955.04	8534.90
956.67	7813.07
958.30	7150.88
959.92	6791.13
961.55	6418.72
963.18	6276.67
964.80	6067.40
966.43	6017.24
968.06	5874.13
969.68	5870.55
971.31	5761.80
972.94	5798.68
974.56	5744.31
976.19	5810.07
977.82	5801.21
979.44	5931.25
981.07	5981.83
982.70	6152.75
984.32	6245.90
985.95	6455.82
987.58	6573.42
989.21	6853.51
990.83	6991.97
992.46	7305.58
994.09	7474.81
995.71	7828.25
997.34	8035.00
998.97	8422.36
1000.60	8678.22
1002.22	9128.81
1003.85	9426.18
1005.48	9921.66
1007.11	10274.68
1008.73	10848.56
1010.36	11243.30
1011.99	11897.27
1013.61	12352.29
1015.24	13047.99
1016.87	13524.50
1018.50	14302.19
1020.12	14858.79
1021.75	15712.97
1023.38	16248.08
1025.01	17121.44
1026.63	17713.45
1028.26	18583.02
1029.89	19100.63
1031.51	20018.25
1033.14	20578.65
1034.77	21494.59
1036.40	21963.72
1038.02	22860.27
1039.65	23297.80
1041.28	24156.83
1042.91	24537.45
1044.53	25333.47
1046.16	25677.84
1047.79	26399.25
1049.41	26636.35
1051.04	27297.91
1052.67	27440.80
1054.29	28048.61
1055.92	28106.57
1057.55	28613.86
1059.17	28607.53
1060.80	29017.87
1062.43	28922.61
1064.05	29315.88
1065.68	29096.90
1067.31	29409.03
1068.93	29090.58
1070.56	29291.64
1072.19	28951.69
1073.81	29119.45
1075.44	28731.88
1077.07	28779.93
1078.69	28323.01
1080.32	28280.02
1081.94	27788.12
1083.57	27720.47
1085.20	27106.96
1086.82	26847.32
1088.45	26327.17
1090.07	26130.96
1091.70	25452.76
1093.33	25218.19
1094.95	24566.33
1096.58	24316.37
1098.20	23647.86
1099.83	23304.96
1101.45	22619.80
1103.08	22328.12
1104.70	21679.63
1106.33	21415.76
1107.95	20861.06
1109.58	20610.26
1111.20	19997.18
1112.83	19675.36
1114.45	19079.14
1116.07	18742.98
1117.70	18055.92
1119.32	17617.56
1120.95	16813.11
1122.57	16155.77
1124.20	15179.98
1125.82	14353.40
1127.44	13173.81
1129.07	12098.12
1130.69	10783.44
1132.31	9505.64
1133.94	8076.09
1135.56	6787.96
1137.18	5539.46
1138.81	4543.01
1140.43	3690.09
1142.05	3076.38
1143.67	2557.29
1145.30	2213.97
1146.92	1936.41
1148.54	1778.55
1150.16	1627.23
1151.78	1558.53
1153.41	1486.03
1155.03	1456.10
1156.65	1427.44
1158.27	1419.22
1159.89	1399.41
1161.51	1403.62
1163.13	1389.50
1164.75	1407.84
1166.37	1392.87
1168.00	1404.68
1169.62	1405.10
1171.24	1407.63
1172.86	1405.31
1174.48	1418.16
1176.10	1416.48
1177.72	1432.28
1179.33	1427.86
1180.95	1447.04
1182.57	1438.61
1184.19	1462.00
1185.81	1450.20
1187.43	1472.54
1189.05	1465.79
1190.67	1486.45
1192.28	1478.44
1193.90	1507.94
1195.52	1502.47
1197.14	1527.54
1198.75	1530.07
1200.37	1550.94
1201.99	1558.10
1203.61	1575.18
1205.22	1590.56
1206.84	1611.42
1208.46	1618.38
1210.07	1639.67
1211.69	1646.83
1213.30	1683.29
1214.92	1677.60
1216.53	1716.38
1218.15	1714.48
1219.76	1740.41
1221.38	1756.63
1222.99	1770.97
1224.61	1791.62
1226.22	1819.65
1227.84	1824.08
1229.45	1850.00
1231.06	1854.85
1232.68	1891.94
1234.29	1898.05
1235.90	1930.30
1237.52	1939.57
1239.13	1976.66
1240.74	1986.99
1242.35	2017.55
1243.96	2027.45
1245.58	2052.11
1247.19	2067.29
1248.80	2089.84
1250.41	2104.17
1252.02	2137.26
1253.63	2145.48
1255.24	2167.18
1256.85	2178.56
1258.46	2208.07
1260.07	2211.44
1261.68	2244.95
1263.29	2239.26
1264.90	2273.82
1266.51	2272.56
1268.11	2293.85
1269.72	2278.25
1271.33	2316.19
1272.94	2298.27
1274.55	2324.19
1276.15	2314.50
1277.76	2325.04
1279.37	2318.72
1280.97	2328.83
1282.58	2314.29
1284.18	2330.94
1285.79	2311.55
1287.40	2323.98
1289.00	2308.18
1290.61	2324.62
1292.21	2303.75
1293.81	2315.55
1295.42	2298.27
1297.02	2302.70
1298.63	2289.84
1300.23	2291.95
1301.83	2283.94
1303.43	2295.74
1305.04	2281.83
1306.64	2294.06
1308.24	2276.35
1309.84	2295.53
1311.44	2278.04
1313.04	2295.32
1314.64	2293.00
1316.24	2302.28
1317.84	2293.42
1319.44	2319.14
1321.04	2297.85
1322.64	2332.20
1324.24	2317.66
1325.84	2338.95
1327.44	2331.99
1329.04	2357.92
1330.63	2347.17
1332.23	2372.67
1333.83	2367.19
1335.42	2389.53
1337.02	2375.62
1338.62	2413.98
1340.21	2399.86
1341.81	2440.74
1343.40	2436.11
1345.00	2463.92
1346.59	2455.07
1348.19	2493.43
1349.78	2476.57
1351.37	2517.67
1352.97	2513.24
1354.56	2545.70
1356.15	2537.48
1357.75	2573.10
1359.34	2574.36
1360.93	2609.13
1362.52	2597.33
1364.11	2632.53
1365.70	2620.09
1367.29	2658.66
1368.88	2653.18
1370.47	2691.33
1372.06	2683.95
1373.65	2708.82
1375.24	2705.24
1376.83	2734.95
1378.41	2717.46
1380.00	2758.14
1381.59	2732.85
1383.17	2773.52
1384.76	2754.98
1386.35	2793.54
1387.93	2772.68
1389.52	2811.25
1391.10	2787.85
1392.69	2818.20
1394.27	2805.56
1395.85	2847.29
1397.44	2831.27
1399.02	2865.62
1400.60	2859.72
1402.19	2877.21
1403.77	2867.10
1405.35	2895.76
1406.93	2885.01
1408.51	2906.51
1410.09	2902.50
1411.67	2926.11
1413.25	2903.98
1414.83	2934.75
1416.41	2915.57
1417.99	2935.17
1419.56	2918.52
1421.14	2952.45
1422.72	2918.31
1424.30	2952.45
1425.87	2920.63
1427.45	2954.98
1429.02	2920.42
1430.60	2952.45
1432.17	2913.46
1433.75	2952.24
1435.32	2905.88
1436.90	2945.08
1438.47	2911.14
1440.04	2948.66
1441.61	2910.51
1443.19	2938.75
1444.76	2905.03
1446.33	2937.49
1447.90	2903.35
1449.47	2924.84
1451.04	2903.56
1452.61	2921.68
1454.18	2895.97
1455.75	2911.14
1457.31	2883.33
1458.88	2906.30
1460.45	2867.31
1462.02	2882.48
1463.58	2848.76
1465.15	2873.84
1466.71	2843.70
1468.28	2866.46
1469.84	2830.64
1471.41	2859.93
1472.97	2834.85
1474.53	2859.30
1476.10	2826.42
1477.66	2863.94
1479.22	2832.32
1480.78	2877.21
1482.34	2842.65
1483.90	2882.48
1485.46	2854.45
1487.02	2890.70
1488.58	2866.68
1490.14	2896.81
1491.70	2883.75
1493.26	2912.83
1494.82	2891.76
1496.37	2914.31
1497.93	2899.55
1499.48	2930.11
1501.04	2913.04
1502.59	2949.50
1504.15	2922.10
1505.70	2953.30
1507.26	2921.26
1508.81	2954.77
1510.36	2920.63
1511.91	2952.87
1513.46	2918.94
1515.02	2942.34
1516.57	2910.09
1518.12	2932.43
1519.67	2895.76
1521.22	2926.53
1522.76	2896.60
1524.31	2927.16
1525.86	2891.12
1527.41	2925.27
1528.95	2892.18
1530.50	2923.16
1532.04	2906.30
1533.59	2934.33
1535.13	2901.87
1536.68	2933.91
1538.22	2910.09
1539.76	2952.87
1541.31	2919.36
1542.85	2953.72
1544.39	2922.31
1545.93	2962.36
1547.47	2933.48
1549.01	2973.11
1550.55	2946.76
1552.09	2973.11
1553.63	2945.71
1555.17	2983.85
1556.70	2941.28
1558.24	2984.07
1559.78	2945.71
1561.31	2975.21
1562.85	2933.48
1564.38	2967.63
1565.91	2934.75
1567.45	2967.63
1568.98	2924.84
1570.51	2961.51
1572.04	2909.04
1573.58	2952.03
1575.11	2905.45
1576.64	2941.91
1578.17	2904.61
1579.70	2932.43
1581.22	2894.92
1582.75	2939.39
1584.28	2890.07
1585.81	2929.90
1587.33	2882.90
1588.86	2918.73
1590.38	2877.63
1591.91	2915.99
1593.43	2868.78
1594.95	2904.61
1596.48	2861.83
1598.00	2898.50
1599.52	2857.61
1601.04	2896.39
1602.56	2856.35
1604.08	2893.86
1605.60	2851.50
1607.12	2873.21
1608.64	2841.38
1610.16	2878.90
1611.67	2828.95
1613.19	2872.79
1614.71	2826.00
1616.22	2855.72
1617.74	2818.83
1619.25	2846.86
1620.76	2810.61
1622.28	2837.17
1623.79	2790.38
1625.30	2830.22
1626.81	2783.43
1628.32	2822.21
1629.83	2779.63
1631.34	2815.88
1632.85	2772.05
1634.36	2802.40
1635.86	2760.24
1637.37	2794.39
1638.88	2751.81
1640.38	2789.33
1641.89	2744.65
1643.39	2765.94
1644.89	2728.84
1646.40	2749.92
1647.90	2708.61
1649.40	2731.37
1650.90	2681.63
1652.40	2691.96
1653.90	2638.64
1655.40	2662.67
1656.90	2622.20
1658.40	2634.42
1659.90	2589.11
1661.39	2594.17
1662.89	2562.98
1664.38	2567.83
1665.88	2530.10
1667.37	2555.39
1668.87	2508.18
1670.36	2526.94
1671.85	2481.63
1673.34	2500.17
1674.83	2458.45
1676.32	2480.57
1677.81	2453.39
1679.30	2466.45
1680.79	2431.47
1682.28	2457.39
1683.76	2425.15
1685.25	2450.65
1686.74	2425.99
1688.22	2448.96
1689.70	2421.35
1691.19	2455.49
1692.67	2420.30
1694.15	2442.01
1695.63	2414.40
1697.12	2441.80
1698.60	2414.40
1700.07	2439.90
1701.55	2415.87
1703.03	2452.54
1704.51	2408.50
1705.99	2445.17
1707.46	2408.50
