898.17	13285.51
899.80	13249.26
901.42	13456.01
903.04	13397.84
904.67	13598.69
906.29	13547.90
907.91	13745.37
909.54	13713.97
911.16	13935.05
912.79	13955.92
914.41	14291.86
916.04	14530.43
917.66	15145.20
919.28	15630.57
920.91	16342.07
922.53	16579.17
924.16	16923.97
925.78	16732.18
927.41	16720.17
929.03	16258.19
930.66	15990.75
932.28	15353.85
933.91	14959.11
935.53	14234.74
937.16	13751.49
938.78	12997.83
940.41	12451.13
942.04	11618.23
943.66	11000.51
945.29	10104.18
946.91	9380.45
948.54	8443.23
950.17	7652.90
951.79	6750.87
953.42	6043.79
955.04	5344.51
956.67	4888.65
958.30	4472.20
959.92	4250.06
961.55	4032.99
963.18	3940.47
964.80	3808.32
966.43	3777.98
968.06	3691.14
969.68	3698.94
971.31	3632.77
972.94	3665.43
974.56	3631.50
976.19	3684.61
977.82	3684.61
979.44	3765.75
981.07	3805.80
982.70	3925.08
984.32	3977.35
985.95	4113.50
987.58	4200.33
989.21	4383.68
990.83	4494.33
992.46	4702.97
994.09	4824.79
995.71	5068.42
997.34	5202.67
998.97	5480.45
1000.60	5652.00
1002.22	5962.65
1003.85	6157.18
1005.48	6494.59
1007.11	6722.42
1008.73	7120.32
1010.36	7380.60
1011.99	7800.85
1013.61	8097.38
1015.24	8567.99
1016.87	8885.18
1018.50	9415.64
1020.12	9750.11
1021.75	10312.40
1023.38	10659.51
1025.01	11244.78
1026.63	11596.95
1028.26	12187.69
1029.89	12515.41
1031.51	13123.86
1033.14	13460.86
1034.77	14044.64
1036.40	14364.36
1038.02	14973.44
1039.65	15232.24
1041.28	15817.09
1042.91	16056.50
1044.53	16599.61
1046.16	16835.87
1047.79	17344.00
1049.41	17460.33
1051.04	17906.50
1052.67	17980.90
1054.29	18406.83
1055.92	18423.27
1057.55	18825.18
1059.17	18792.72
1060.80	19068.18
1062.43	18987.25
1064.05	19258.07
1065.68	19130.56
1067.31	19341.10
1068.93	19186.41
1070.56	19374.19
1072.19	19133.93
1073.81	19211.70
1075.44	18948.89
1077.07	19064.17
1078.69	18710.95
1080.32	18699.15
1081.94	18339.18
1083.57	18354.56
1085.20	17928.00
1086.82	17799.23
1088.45	17446.21
1090.07	17335.57
1091.70	16860.74
1093.33	16727.75
1094.95	16290.02
1096.58	16124.15
1098.20	15669.56
1099.83	15461.54
1101.45	15027.18
1103.08	14833.50
1104.70	14398.50
1106.33	14246.55
1107.95	13858.55
1109.58	13712.71
1111.20	13304.48
1112.83	13146.83
1114.45	12727.64
1116.07	12526.58
1117.70	12069.88
1119.32	11804.96
1120.95	11228.34
1122.57	10785.55
1124.20	10134.53
1125.82	9586.14
1127.44	8808.88
1129.07	8089.79
1130.69	7220.43
1132.31	6355.50
1133.94	5373.59
1135.56	4512.03
1137.18	3674.71
1138.81	3000.50
1140.43	2427.25
1142.05	2012.49
1143.67	1668.75
1145.30	1439.66
1146.92	1266.63
1148.54	1143.55
1150.16	1055.03
1151.78	993.49
1153.41	958.93
1155.03	932.38
1156.65	910.67
1158.27	912.99
1159.89	894.44
1161.51	906.24
1163.13	890.86
1164.75	907.09
1166.37	894.23
1168.00	907.09
1169.62	901.39
1171.24	907.93
1172.86	898.87
1174.48	922.05
1176.10	903.92
1177.72	919.10
1179.33	914.25
1180.95	923.31
1182.57	922.26
1184.19	937.01
1185.81	929.42
1187.43	949.45
1189.05	938.28
1190.67	950.92
1192.28	949.24
1193.90	972.42
1195.52	964.62
1197.14	977.48
1198.75	985.27
1200.37	995.39
1201.99	994.13
1203.61	1011.20
1205.22	1018.36
1206.84	1033.33
1208.46	1032.48
1210.07	1053.56
1211.69	1051.24
1213.30	1084.54
1214.92	1072.11
1216.53	1102.45
1218.15	1100.35
1219.76	1119.95
1221.38	1123.11
1222.99	1143.76
1224.61	1145.24
1226.22	1168.00
1227.84	1172.42
1229.45	1185.49
1231.06	1192.87
1232.68	1207.83
1234.29	1220.27
1235.90	1236.28
1237.52	1249.35
1239.13	1271.69
1240.74	1276.75
1242.35	1299.93
1243.96	1302.25
1245.58	1327.33
1247.19	1330.07
1248.80	1345.03
1250.41	1356.20
1252.02	1375.38
1253.63	1383.60
1255.24	1394.98
1256.85	1404.46
1258.46	1413.74
1260.07	1415.21
1261.68	1447.25
1263.29	1438.19
1264.90	1462.63
1266.51	1467.27
1268.11	1473.80
1269.72	1464.95
1271.33	1486.24
1272.94	1475.70
1274.55	1495.93
1276.15	1486.03
1277.76	1491.51
1279.37	1483.29
1280.97	1492.14
1282.58	1477.39
1284.18	1483.71
1285.79	1473.17
1287.40	1474.65
1289.00	1468.11
1290.61	1472.33
1292.21	1462.63
1293.81	1467.48
1295.42	1454.20
1297.02	1455.68
1298.63	1445.35
1300.23	1444.93
1301.83	1439.66
1303.43	1442.61
1305.04	1435.45
1306.64	1443.45
1308.24	1419.43
1309.84	1440.92
1311.44	1419.85
1313.04	1430.81
1314.64	1430.18
1316.24	1434.18
1317.84	1432.28
1319.44	1450.41
1321.04	1428.49
1322.64	1454.62
1324.24	1441.14
1325.84	1460.74
1327.44	1451.04
1329.04	1469.59
1330.63	1463.48
1332.23	1471.06
1333.83	1475.91
1335.42	1481.60
1337.02	1473.59
1338.62	1491.93
1340.21	1487.92
1341.81	1516.80
1343.40	1507.73
1345.00	1530.71
1346.59	1515.53
1348.19	1548.41
1349.78	1534.08
1351.37	1563.58
1352.97	1560.84
1354.56	1579.60
1356.15	1573.28
1357.75	1594.35
1359.34	1594.14
1360.93	1616.90
1362.52	1595.62
1364.11	1626.60
1365.70	1621.54
1367.29	1642.62
1368.88	1636.72
1370.47	1663.06
1372.06	1657.37
1373.65	1670.44
1375.24	1672.75
1376.83	1690.46
1378.41	1678.44
1380.00	1703.10
1381.59	1688.56
1383.17	1711.11
1384.76	1697.41
1386.35	1726.07
1387.93	1704.37
1389.52	1730.50
1391.10	1712.38
1392.69	1731.98
1394.27	1729.66
1395.85	1751.37
1397.44	1740.20
1399.02	1765.06
1400.60	1761.48
1402.19	1772.02
1403.77	1760.22
1405.35	1787.83
1406.93	1776.23
1408.51	1789.72
1410.09	1786.14
1411.67	1794.36
1413.25	1784.24
1414.83	1800.68
1416.41	1787.40
1417.99	1804.69
1419.56	1793.31
1421.14	1810.17
1422.72	1790.99
1424.30	1812.91
1425.87	1793.09
1427.45	1814.38
1429.02	1788.25
1430.60	1805.53
1432.17	1786.98
1433.75	1813.96
1435.32	1782.56
1436.90	1804.26
1438.47	1780.45
1440.04	1798.36
1441.61	1784.88
1443.19	1791.20
1444.76	1781.08
1446.33	1793.52
1447.90	1775.60
1449.47	1785.72
1451.04	1780.03
1452.61	1783.82
1454.18	1770.33
1455.75	1780.45
1457.31	1760.43
1458.88	1777.50
1460.45	1750.31
1462.02	1763.17
1463.58	1744.62
1465.15	1750.94
1466.71	1737.46
1468.28	1742.94
1469.84	1727.13
1471.41	1742.94
1472.97	1727.76
1474.53	1742.94
1476.10	1725.86
1477.66	1743.99
1479.22	1726.07
1480.78	1750.31
1482.34	1734.29
1483.90	1760.22
1485.46	1740.20
1487.02	1755.79
1488.58	1753.68
1490.14	1763.80
1491.70	1755.79
1493.26	1771.60
1494.82	1758.32
1496.37	1778.76
1497.93	1768.02
1499.48	1783.19
1501.04	1777.29
1502.59	1793.31
1504.15	1782.56
1505.70	1792.67
1507.26	1776.66
1508.81	1801.10
1510.36	1773.49
1511.91	1799.84
1513.46	1773.71
1515.02	1787.62
1516.57	1773.92
1518.12	1785.51
1519.67	1761.06
1521.22	1784.03
1522.76	1760.22
1524.31	1777.29
1525.86	1763.59
1527.41	1774.76
1528.95	1765.06
1530.50	1779.61
1532.04	1768.44
1533.59	1784.66
1535.13	1756.42
1536.68	1786.98
1538.22	1762.75
1539.76	1799.00
1541.31	1776.66
1542.85	1796.26
1544.39	1780.03
1545.93	1801.74
1547.47	1786.98
1549.01	1808.90
1550.55	1790.35
1552.09	1808.27
1553.63	1793.73
1555.17	1817.75
1556.70	1790.99
1558.24	1813.96
1559.78	1792.25
1561.31	1805.32
1562.85	1779.61
1564.38	1803.84
1565.91	1788.46
1567.45	1802.16
1568.98	1778.97
1570.51	1797.94
1572.04	1772.65
1573.58	1791.83
1575.11	1770.75
1576.64	1786.77
1578.17	1766.96
1579.70	1779.82
1581.22	1765.06
1582.75	1785.09
1584.28	1756.42
1585.81	1777.50
1587.33	1753.26
1588.86	1773.71
1590.38	1754.32
1591.91	1763.59
1593.43	1748.63
1594.95	1765.91
1596.48	1741.46
1598.00	1766.12
1599.52	1742.09
1601.04	1756.63
1602.56	1741.25
1604.08	1761.48
1605.60	1729.87
1607.12	1749.47
1608.64	1730.29
1610.16	1752.21
1611.67	1720.38
1613.19	1737.88
1614.71	1718.07
1616.22	1739.56
1617.74	1715.12
1619.25	1730.29
1620.76	1707.74
1622.28	1729.24
1623.79	1700.36
1625.30	1717.22
1626.81	1693.41
1628.32	1715.75
1629.83	1692.99
1631.34	1712.17
1632.85	1687.93
1634.36	1708.16
1635.86	1683.71
1637.37	1700.78
1638.88	1679.08
1640.38	1699.10
1641.89	1667.49
1643.39	1678.87
1644.89	1661.80
1646.40	1673.39
1647.90	1649.36
1649.40	1663.48
1650.90	1637.98
1652.40	1637.56
1653.90	1609.95
1655.40	1621.33
1656.90	1596.46
1658.40	1604.47
1659.90	1579.39
1661.39	1577.49
1662.89	1557.68
1664.38	1571.80
1665.88	1543.35
1667.37	1555.58
1668.87	1528.39
1670.36	1545.46
1671.85	1514.27
1673.34	1528.60
1674.83	1501.62
1676.32	1515.11
1677.81	1496.35
1679.30	1504.99
1680.79	1492.35
1682.28	1502.47
1683.76	1481.39
1685.25	1497.83
1686.74	1483.08
1688.22	1492.14
1689.70	1480.55
1691.19	1496.99
1692.67	1480.97
1694.15	1491.08
1695.63	1475.28
1697.12	1494.25
1698.60	1475.70
1700.07	1495.51
1701.55	1479.91
1703.03	1500.57
1704.51	1470.64
1705.99	1505.20
1707.46	1477.39
