898.17	10097.64
899.80	10088.79
901.42	10247.70
903.04	10242.01
904.67	10393.33
906.29	10379.21
907.91	10518.52
909.54	10518.73
911.16	10686.28
912.79	10722.53
914.41	10977.33
916.04	11186.61
917.66	11643.74
919.28	12043.32
920.91	12588.12
922.53	12794.24
924.16	13065.69
925.78	12950.83
927.41	12944.93
929.03	12584.33
930.66	12361.98
932.28	11870.72
933.91	11572.92
935.53	11030.02
937.16	10679.96
938.78	10097.01
940.41	9663.49
942.04	9043.87
943.66	8558.30
945.29	7873.14
946.91	7280.92
948.54	6568.57
950.17	5936.52
951.79	5242.50
953.42	4680.63
955.04	4161.13
956.67	3802.00
958.30	3508.00
959.92	3343.19
961.55	3184.49
963.18	3113.26
964.80	3018.84
966.43	3005.56
968.06	2949.29
969.68	2954.56
971.31	2903.98
972.94	2933.70
974.56	2912.20
976.19	2950.13
977.82	2956.67
979.44	3026.22
981.07	3055.72
982.70	3165.10
984.32	3216.95
985.95	3337.71
987.58	3410.63
989.21	3565.96
990.83	3666.28
992.46	3849.63
994.09	3947.42
995.71	4155.86
997.34	4270.51
998.97	4506.13
1000.60	4663.14
1002.22	4917.73
1003.85	5097.08
1005.48	5377.18
1007.11	5590.04
1008.73	5906.17
1010.36	6143.69
1011.99	6486.16
1013.61	6748.97
1015.24	7139.08
1016.87	7420.44
1018.50	7829.51
1020.12	8141.43
1021.75	8606.98
1023.38	8902.67
1025.01	9370.96
1026.63	9674.45
1028.26	10160.66
1029.89	10463.72
1031.51	10946.98
1033.14	11280.61
1034.77	11758.81
1036.40	12043.54
1038.02	12549.35
1039.65	12808.57
1041.28	13272.02
1042.91	13492.89
1044.53	13965.40
1046.16	14192.80
1047.79	14582.70
1049.41	14722.85
1051.04	15103.26
1052.67	15183.77
1054.29	15532.78
1055.92	15606.12
1057.55	15928.78
1059.17	15964.61
1060.80	16171.36
1062.43	16141.44
1064.05	16347.13
1065.68	16260.72
1067.31	16426.59
1068.93	16324.58
1070.56	16439.02
1072.19	16283.91
1073.81	16361.25
1075.44	16194.76
1077.07	16249.34
1078.69	15995.80
1080.32	15986.53
1081.94	15705.39
1083.57	15687.47
1085.20	15389.04
1086.82	15287.25
1088.45	14988.19
1090.07	14867.22
1091.70	14452.24
1093.33	14351.29
1094.95	14017.88
1096.58	13889.53
1098.20	13521.34
1099.83	13315.86
1101.45	12958.42
1103.08	12777.80
1104.70	12424.58
1106.33	12266.72
1107.95	11986.42
1109.58	11880.62
1111.20	11533.09
1112.83	11361.32
1114.45	11018.43
1116.07	10844.35
1117.70	10477.21
1119.32	10208.08
1120.95	9735.99
1122.57	9314.27
1124.20	8736.17
1125.82	8253.76
1127.44	7581.24
1129.07	6953.62
1130.69	6196.38
1132.31	5449.68
1133.94	4611.93
1135.56	3844.57
1137.18	3113.05
1138.81	2527.36
1140.43	2044.31
1142.05	1685.82
1143.67	1398.14
1145.30	1206.14
1146.92	1051.45
1148.54	956.82
1150.16	872.52
1151.78	835.01
1153.41	785.69
1155.03	768.41
1156.65	746.91
1158.27	742.06
1159.89	720.57
1161.51	733.00
1163.13	719.51
1164.75	727.94
1166.37	720.99
1168.00	721.62
1169.62	723.94
1171.24	721.20
1172.86	715.30
1174.48	723.10
1176.10	722.89
1177.72	719.30
1179.33	721.20
1180.95	724.36
1182.57	719.94
1184.19	731.53
1185.81	719.94
1187.43	737.64
1189.05	721.83
1190.67	741.43
1192.28	731.53
1193.90	749.86
1195.52	742.28
1197.14	752.81
1198.75	753.87
1200.37	762.51
1201.99	765.46
1203.61	774.10
1205.22	782.32
1206.84	789.27
1208.46	790.54
1210.07	805.08
1211.69	805.92
1213.30	825.73
1214.92	817.30
1216.53	841.12
1218.15	839.01
1219.76	851.66
1221.38	853.34
1222.99	862.83
1224.61	871.68
1226.22	893.18
1227.84	885.38
1229.45	908.98
1231.06	907.30
1232.68	917.41
1234.29	929.21
1235.90	941.44
1237.52	953.03
1239.13	966.94
1240.74	968.41
1242.35	986.54
1243.96	995.60
1245.58	1003.82
1247.19	1010.14
1248.80	1019.42
1250.41	1031.22
1252.02	1045.34
1253.63	1047.87
1255.24	1065.99
1256.85	1060.72
1258.46	1083.06
1260.07	1072.95
1261.68	1097.19
1263.29	1091.92
1264.90	1115.10
1266.51	1111.31
1268.11	1118.05
1269.72	1107.30
1271.33	1129.64
1272.94	1107.93
1274.55	1131.33
1276.15	1118.47
1277.76	1120.58
1279.37	1115.31
1280.97	1114.89
1282.58	1108.36
1284.18	1112.99
1285.79	1100.98
1287.40	1098.87
1289.00	1095.71
1290.61	1094.02
1292.21	1083.06
1293.81	1084.75
1295.42	1069.15
1297.02	1073.16
1298.63	1060.51
1300.23	1057.56
1301.83	1056.72
1303.43	1052.93
1305.04	1050.61
1306.64	1041.97
1308.24	1036.70
1309.84	1045.34
1311.44	1031.01
1313.04	1041.12
1314.64	1039.86
1316.24	1045.55
1317.84	1035.86
1319.44	1045.34
1321.04	1031.85
1322.64	1052.29
1324.24	1041.34
1325.84	1048.29
1327.44	1044.92
1329.04	1056.09
1330.63	1050.82
1332.23	1055.67
1333.83	1067.05
1335.42	1063.68
1337.02	1056.93
1338.62	1072.74
1340.21	1070.00
1341.81	1086.02
1343.40	1088.54
1345.00	1102.88
1346.59	1084.96
1348.19	1112.78
1349.78	1095.71
1351.37	1123.32
1352.97	1115.52
1354.56	1130.91
1356.15	1122.48
1357.75	1137.65
1359.34	1142.50
1360.93	1149.03
1362.52	1145.45
1364.11	1161.89
1365.70	1157.88
1367.29	1174.53
1368.88	1170.32
1370.47	1192.66
1372.06	1181.28
1373.65	1193.08
1375.24	1193.92
1376.83	1200.45
1378.41	1194.13
1380.00	1212.47
1381.59	1194.97
1383.17	1218.37
1384.76	1206.99
1386.35	1224.27
1387.93	1212.26
1389.52	1225.96
1391.10	1224.69
1392.69	1231.44
1394.27	1229.12
1395.85	1236.49
1397.44	1237.34
1399.02	1249.14
1400.60	1251.67
1402.19	1251.88
1403.77	1255.25
1405.35	1258.62
1406.93	1260.73
1408.51	1263.26
1410.09	1265.58
1411.67	1270.00
1413.25	1268.95
1414.83	1274.64
1416.41	1264.73
1417.99	1274.01
1419.56	1271.90
1421.14	1281.59
1422.72	1269.16
1424.30	1280.12
1425.87	1265.58
1427.45	1278.43
1429.02	1268.74
1430.60	1275.48
1432.17	1261.15
1433.75	1279.49
1435.32	1257.78
1436.90	1276.33
1438.47	1256.30
1440.04	1271.90
1441.61	1260.31
1443.19	1270.21
1444.76	1261.57
1446.33	1270.00
1447.90	1256.94
1449.47	1258.41
1451.04	1261.99
1452.61	1254.83
1454.18	1255.88
1455.75	1253.35
1457.31	1245.56
1458.88	1256.09
1460.45	1234.81
1462.02	1250.40
1463.58	1229.75
1465.15	1240.29
1466.71	1225.96
1468.28	1238.39
1469.84	1220.27
1471.41	1234.81
1472.97	1218.58
1474.53	1231.86
1476.10	1225.75
1477.66	1229.75
1479.22	1220.90
1480.78	1238.18
1482.34	1226.59
1483.90	1243.24
1485.46	1231.44
1487.02	1242.18
1488.58	1242.18
1490.14	1249.14
1491.70	1248.08
1493.26	1253.99
1494.82	1251.46
1496.37	1257.15
1497.93	1252.51
1499.48	1264.95
1501.04	1261.99
1502.59	1271.27
1504.15	1264.95
1505.70	1270.42
1507.26	1262.63
1508.81	1273.59
1510.36	1257.99
1511.91	1277.17
1513.46	1258.20
1515.02	1279.70
1516.57	1256.94
1518.12	1272.53
1519.67	1256.73
1521.22	1267.05
1522.76	1255.67
1524.31	1261.57
1525.86	1262.84
1527.41	1255.04
1528.95	1265.37
1530.50	1260.94
1532.04	1260.52
1533.59	1272.95
1535.13	1252.93
1536.68	1279.07
1538.22	1258.83
1539.76	1287.71
1541.31	1268.53
1542.85	1283.70
1544.39	1276.33
1545.93	1291.71
1547.47	1278.22
1549.01	1299.72
1550.55	1282.23
1552.09	1295.72
1553.63	1281.81
1555.17	1300.14
1556.70	1281.59
1558.24	1301.41
1559.78	1280.54
1561.31	1295.08
1562.85	1285.81
1564.38	1291.92
1565.91	1284.12
1567.45	1294.24
1568.98	1272.74
1570.51	1291.08
1572.04	1276.75
1573.58	1290.03
1575.11	1271.90
1576.64	1287.07
1578.17	1271.69
1579.70	1281.38
1581.22	1271.27
1582.75	1283.91
1584.28	1263.05
1585.81	1287.71
1587.33	1268.11
1588.86	1280.12
1590.38	1266.21
1591.91	1279.28
1593.43	1260.10
1594.95	1277.59
1596.48	1262.84
1598.00	1272.11
1599.52	1264.73
1601.04	1271.90
1602.56	1267.05
1604.08	1268.11
1605.60	1256.94
1607.12	1264.52
1608.64	1257.36
1610.16	1272.95
1611.67	1250.19
1613.19	1267.90
1614.71	1246.19
1616.22	1267.05
1617.74	1246.61
1619.25	1260.52
1620.76	1246.61
1622.28	1257.15
1623.79	1243.24
1625.30	1255.88
1626.81	1236.49
1628.32	1250.82
1629.83	1231.01
1631.34	1251.04
1632.85	1233.54
1634.36	1240.50
1635.86	1228.91
1637.37	1242.18
1638.88	1228.48
1640.38	1241.13
1641.89	1226.17
1643.39	1230.38
1644.89	1218.37
1646.40	1231.01
1647.90	1210.78
1649.40	1215.84
1650.90	1198.77
1652.40	1199.40
1653.90	1179.17
1655.40	1184.65
1656.90	1174.11
1658.40	1175.80
1659.90	1166.52
1661.39	1159.99
1662.89	1147.98
1664.38	1157.46
1665.88	1137.02
1667.37	1151.14
1668.87	1129.01
1670.36	1140.18
1671.85	1120.16
1673.34	1123.32
1674.83	1117.42
1676.32	1111.94
1677.81	1106.88
1679.30	1112.57
1680.79	1103.30
1682.28	1112.78
1683.76	1097.19
1685.25	1108.99
1686.74	1101.61
1688.22	1110.46
1689.70	1099.29
1691.19	1115.31
1692.67	1097.61
1694.15	1108.99
1695.63	1097.61
1697.12	1112.15
1698.60	1105.40
1700.07	1113.83
1701.55	1099.08
1703.03	1119.10
1704.51	1097.19
1705.99	1117.63
1707.46	1097.82
