898.17	10485.01
899.80	10469.84
901.42	10643.71
903.04	10622.63
904.67	10785.76
906.29	10755.62
907.91	10908.84
909.54	10906.52
911.16	11082.71
912.79	11106.10
914.41	11357.74
916.04	11574.40
917.66	12062.50
919.28	12477.48
920.91	13056.63
922.53	13257.69
924.16	13530.83
925.78	13410.06
927.41	13429.45
929.03	13050.31
930.66	12825.85
932.28	12324.89
933.91	12030.47
935.53	11465.86
937.16	11083.76
938.78	10477.63
940.41	10032.52
942.04	9372.86
943.66	8868.95
945.29	8159.76
946.91	7563.54
948.54	6824.21
950.17	6167.08
951.79	5442.30
953.42	4868.42
955.04	4317.93
956.67	3948.48
958.30	3644.15
959.92	3462.06
961.55	3291.13
963.18	3219.48
964.80	3125.69
966.43	3102.30
968.06	3044.55
969.68	3052.98
971.31	2999.66
972.94	3030.01
974.56	3003.45
976.19	3051.72
977.82	3056.35
979.44	3127.38
981.07	3163.21
982.70	3267.53
984.32	3323.59
985.95	3442.88
987.58	3518.33
989.21	3685.03
990.83	3785.77
992.46	3972.71
994.09	4082.94
995.71	4292.00
997.34	4410.66
998.97	4653.66
1000.60	4807.93
1002.22	5072.64
1003.85	5261.89
1005.48	5556.53
1007.11	5769.18
1008.73	6107.86
1010.36	6346.01
1011.99	6709.98
1013.61	6964.58
1015.24	7364.80
1016.87	7646.15
1018.50	8097.17
1020.12	8390.54
1021.75	8886.86
1023.38	9196.46
1025.01	9694.89
1026.63	10004.70
1028.26	10518.52
1029.89	10818.21
1031.51	11326.97
1033.14	11638.26
1034.77	12170.20
1036.40	12455.77
1038.02	12970.01
1039.65	13230.92
1041.28	13722.61
1042.91	13935.26
1044.53	14428.43
1046.16	14638.55
1047.79	15070.59
1049.41	15222.76
1051.04	15617.92
1052.67	15686.42
1054.29	16050.39
1055.92	16102.66
1057.55	16439.02
1059.17	16469.37
1060.80	16704.57
1062.43	16678.44
1064.05	16934.92
1065.68	16836.29
1067.31	16995.83
1068.93	16888.56
1070.56	17000.89
1072.19	16847.88
1073.81	16907.95
1075.44	16708.79
1077.07	16831.65
1078.69	16547.14
1080.32	16520.79
1081.94	16230.58
1083.57	16234.38
1085.20	15916.14
1086.82	15786.74
1088.45	15454.38
1090.07	15347.74
1091.70	14938.24
1093.33	14842.77
1094.95	14484.70
1096.58	14363.73
1098.20	13980.58
1099.83	13783.94
1101.45	13385.20
1103.08	13202.68
1104.70	12841.03
1106.33	12696.24
1107.95	12392.54
1109.58	12287.38
1111.20	11922.98
1112.83	11747.00
1114.45	11400.53
1116.07	11227.50
1117.70	10822.22
1119.32	10569.52
1120.95	10044.96
1122.57	9598.58
1124.20	9033.97
1125.82	8541.44
1127.44	7846.58
1129.07	7201.46
1130.69	6419.14
1132.31	5647.15
1133.94	4777.58
1135.56	3996.32
1137.18	3230.02
1138.81	2623.68
1140.43	2117.87
1142.05	1748.20
1143.67	1448.72
1145.30	1247.45
1146.92	1082.85
1148.54	993.92
1150.16	897.18
1151.78	858.40
1153.41	810.56
1155.03	786.53
1156.65	773.89
1158.27	762.09
1159.89	748.18
1161.51	753.02
1163.13	742.06
1164.75	751.55
1166.37	735.53
1168.00	750.28
1169.62	744.17
1171.24	745.86
1172.86	737.85
1174.48	749.86
1176.10	740.17
1177.72	742.49
1179.33	745.23
1180.95	752.60
1182.57	740.80
1184.19	752.18
1185.81	740.80
1187.43	756.82
1189.05	754.92
1190.67	759.14
1192.28	757.45
1193.90	767.36
1195.52	769.04
1197.14	773.26
1198.75	782.32
1200.37	789.70
1201.99	788.01
1203.61	800.65
1205.22	801.71
1206.84	818.78
1208.46	816.04
1210.07	829.74
1211.69	829.53
1213.30	851.24
1214.92	844.70
1216.53	868.73
1218.15	865.99
1219.76	876.95
1221.38	878.42
1222.99	893.18
1224.61	899.08
1226.22	921.21
1227.84	919.52
1229.45	934.69
1231.06	931.95
1232.68	949.87
1234.29	957.67
1235.90	971.58
1237.52	984.85
1239.13	996.02
1240.74	1000.24
1242.35	1018.15
1243.96	1023.21
1245.58	1038.60
1247.19	1038.38
1248.80	1054.61
1250.41	1066.42
1252.02	1082.85
1253.63	1083.06
1255.24	1100.14
1256.85	1096.55
1258.46	1113.20
1260.07	1113.41
1261.68	1133.86
1263.29	1131.12
1264.90	1145.66
1266.51	1148.82
1268.11	1152.40
1269.72	1147.13
1271.33	1164.63
1272.94	1145.03
1274.55	1164.63
1276.15	1157.04
1277.76	1158.73
1279.37	1155.14
1280.97	1151.98
1282.58	1147.56
1284.18	1149.03
1285.79	1137.86
1287.40	1138.28
1289.00	1128.38
1290.61	1129.85
1292.21	1119.53
1293.81	1120.37
1295.42	1114.05
1297.02	1109.20
1298.63	1093.81
1300.23	1096.13
1301.83	1090.86
1303.43	1090.23
1305.04	1083.70
1306.64	1079.06
1308.24	1073.79
1309.84	1077.37
1311.44	1068.73
1313.04	1071.26
1314.64	1078.64
1316.24	1076.53
1317.84	1068.31
1319.44	1083.91
1321.04	1069.58
1322.64	1085.80
1324.24	1071.05
1325.84	1093.18
1327.44	1077.16
1329.04	1096.34
1330.63	1085.59
1332.23	1094.23
1333.83	1095.92
1335.42	1102.66
1337.02	1094.66
1338.62	1109.41
1340.21	1105.19
1341.81	1122.90
1343.40	1120.16
1345.00	1136.39
1346.59	1123.95
1348.19	1146.71
1349.78	1137.86
1351.37	1159.57
1352.97	1151.77
1354.56	1171.79
1356.15	1158.09
1357.75	1178.96
1359.34	1178.11
1360.93	1196.03
1362.52	1184.86
1364.11	1204.04
1365.70	1196.66
1367.29	1221.53
1368.88	1206.36
1370.47	1227.01
1372.06	1226.38
1373.65	1238.39
1375.24	1231.01
1376.83	1242.61
1378.41	1228.06
1380.00	1252.93
1381.59	1238.81
1383.17	1256.94
1384.76	1251.25
1386.35	1263.68
1387.93	1262.21
1389.52	1267.05
1391.10	1270.00
1392.69	1267.69
1394.27	1270.64
1395.85	1284.55
1397.44	1278.01
1399.02	1291.71
1400.60	1294.87
1402.19	1294.45
1403.77	1295.72
1405.35	1304.78
1406.93	1301.83
1408.51	1309.20
1410.09	1306.46
1411.67	1313.21
1413.25	1310.05
1414.83	1318.69
1416.41	1309.41
1417.99	1321.64
1419.56	1307.52
1421.14	1327.33
1422.72	1310.89
1424.30	1322.48
1425.87	1309.41
1427.45	1324.17
1429.02	1307.52
1430.60	1323.75
1432.17	1304.57
1433.75	1326.49
1435.32	1302.46
1436.90	1319.11
1438.47	1304.99
1440.04	1315.32
1441.61	1298.03
1443.19	1308.15
1444.76	1300.56
1446.33	1314.47
1447.90	1300.56
1449.47	1314.26
1451.04	1294.66
1452.61	1304.99
1454.18	1296.56
1455.75	1299.72
1457.31	1288.97
1458.88	1294.87
1460.45	1280.33
1462.02	1289.60
1463.58	1271.69
1465.15	1284.33
1466.71	1260.10
1468.28	1285.39
1469.84	1257.15
1471.41	1277.59
1472.97	1259.04
1474.53	1276.96
1476.10	1261.78
1477.66	1278.64
1479.22	1259.68
1480.78	1283.49
1482.34	1268.32
1483.90	1290.03
1485.46	1275.48
1487.02	1283.70
1488.58	1282.02
1490.14	1284.97
1491.70	1287.71
1493.26	1294.87
1494.82	1288.97
1496.37	1296.35
1497.93	1298.03
1499.48	1305.62
1501.04	1302.25
1502.59	1312.36
1504.15	1309.84
1505.70	1314.05
1507.26	1308.36
1508.81	1318.48
1510.36	1303.51
1511.91	1319.95
1513.46	1303.51
1515.02	1318.48
1516.57	1299.93
1518.12	1318.69
1519.67	1293.40
1521.22	1311.52
1522.76	1298.46
1524.31	1306.67
1525.86	1299.30
1527.41	1305.20
1528.95	1300.77
1530.50	1313.21
1532.04	1301.62
1533.59	1320.80
1535.13	1298.24
1536.68	1318.48
1538.22	1304.78
1539.76	1331.97
1541.31	1307.31
1542.85	1325.43
1544.39	1319.74
1545.93	1331.33
1547.47	1320.80
1549.01	1341.66
1550.55	1328.17
1552.09	1343.77
1553.63	1321.64
1555.17	1349.46
1556.70	1323.11
1558.24	1350.51
1559.78	1327.75
1561.31	1340.18
1562.85	1331.12
1564.38	1340.82
1565.91	1329.23
1567.45	1338.92
1568.98	1321.22
1570.51	1336.18
1572.04	1317.84
1573.58	1334.70
1575.11	1316.37
1576.64	1329.65
1578.17	1315.95
1579.70	1329.86
1581.22	1317.63
1582.75	1325.64
1584.28	1311.10
1585.81	1331.75
1587.33	1310.26
1588.86	1324.17
1590.38	1309.41
1591.91	1318.90
1593.43	1302.67
1594.95	1326.06
1596.48	1303.51
1598.00	1323.32
1599.52	1306.04
1601.04	1318.48
1602.56	1303.51
1604.08	1315.32
1605.60	1300.35
1607.12	1313.00
1608.64	1299.09
1610.16	1316.58
1611.67	1293.19
1613.19	1313.00
1614.71	1291.08
1616.22	1312.15
1617.74	1287.50
1619.25	1310.26
1620.76	1287.50
1622.28	1311.31
1623.79	1281.59
1625.30	1299.93
1626.81	1280.54
1628.32	1298.03
1629.83	1279.49
1631.34	1292.13
1632.85	1279.49
1634.36	1285.60
1635.86	1276.96
1637.37	1288.13
1638.88	1271.69
1640.38	1291.50
1641.89	1266.42
1643.39	1274.22
1644.89	1267.26
1646.40	1268.32
1647.90	1254.20
1649.40	1258.83
1650.90	1247.24
1652.40	1245.13
1653.90	1221.32
1655.40	1233.12
1656.90	1215.42
1658.40	1222.16
1659.90	1206.57
1661.39	1205.51
1662.89	1193.50
1664.38	1200.67
1665.88	1182.75
1667.37	1192.02
1668.87	1169.05
1670.36	1175.37
1671.85	1159.15
1673.34	1172.00
1674.83	1152.19
1676.32	1163.78
1677.81	1149.03
1679.30	1152.82
1680.79	1148.40
1682.28	1152.61
1683.76	1139.13
1685.25	1151.14
1686.74	1148.19
1688.22	1150.08
1689.70	1143.97
1691.19	1154.93
1692.67	1142.92
1694.15	1147.34
1695.63	1135.12
1697.12	1149.24
1698.60	1142.71
1700.07	1153.46
1701.55	1141.65
1703.03	1158.51
1704.51	1140.81
1705.99	1162.31
1707.46	1145.03
