898.17	14975.76
899.80	14967.75
901.42	15174.92
903.04	15153.63
904.67	15321.81
906.29	15287.46
907.91	15467.23
909.54	15467.02
911.16	15679.67
912.79	15753.02
914.41	16080.74
916.04	16404.25
917.66	17046.20
919.28	17641.16
920.91	18380.70
922.53	18698.51
924.16	19039.09
925.78	18887.77
927.41	18851.10
929.03	18369.11
930.66	18006.61
932.28	17350.74
933.91	16878.23
935.53	16121.62
937.16	15508.96
938.78	14681.96
940.41	14027.15
942.04	13168.75
943.66	12439.12
945.29	11467.12
946.91	10622.00
948.54	9593.10
950.17	8680.96
951.79	7681.98
953.42	6877.74
955.04	6107.44
956.67	5574.86
958.30	5122.59
959.92	4860.20
961.55	4612.14
963.18	4502.34
964.80	4362.19
966.43	4320.03
968.06	4221.82
969.68	4219.72
971.31	4143.42
972.94	4167.24
974.56	4141.32
976.19	4181.78
977.82	4191.47
979.44	4272.83
981.07	4322.99
982.70	4439.74
984.32	4513.30
985.95	4666.51
987.58	4760.72
989.21	4952.09
990.83	5078.12
992.46	5292.66
994.09	5431.34
995.71	5675.18
997.34	5837.88
998.97	6113.34
1000.60	6296.70
1002.22	6625.05
1003.85	6847.40
1005.48	7205.05
1007.11	7470.39
1008.73	7873.77
1010.36	8175.36
1011.99	8642.81
1013.61	8994.14
1015.24	9491.09
1016.87	9872.14
1018.50	10406.40
1020.12	10834.44
1021.75	11443.31
1023.38	11852.38
1025.01	12475.37
1026.63	12913.95
1028.26	13557.38
1029.89	13951.07
1031.51	14584.81
1033.14	15011.37
1034.77	15647.85
1036.40	16041.75
1038.02	16650.62
1039.65	17024.28
1041.28	17602.38
1042.91	17911.98
1044.53	18466.68
1046.16	18770.59
1047.79	19286.94
1049.41	19512.02
1051.04	19945.12
1052.67	20079.80
1054.29	20526.80
1055.92	20611.74
1057.55	20996.15
1059.17	21038.51
1060.80	21313.34
1062.43	21282.57
1064.05	21513.34
1065.68	21396.38
1067.31	21627.36
1068.93	21491.64
1070.56	21555.07
1072.19	21403.12
1073.81	21473.51
1075.44	21204.17
1077.07	21253.69
1078.69	20951.47
1080.32	20922.60
1081.94	20580.76
1083.57	20485.92
1085.20	20095.81
1086.82	19920.25
1088.45	19544.69
1090.07	19371.87
1091.70	18891.14
1093.33	18688.82
1094.95	18263.94
1096.58	18042.65
1098.20	17590.37
1099.83	17308.38
1101.45	16855.89
1103.08	16605.09
1104.70	16133.01
1106.33	15916.56
1107.95	15539.94
1109.58	15376.61
1111.20	14953.84
1112.83	14710.63
1114.45	14287.01
1116.07	14026.52
1117.70	13537.78
1119.32	13181.82
1120.95	12594.66
1122.57	12085.90
1124.20	11372.28
1125.82	10765.52
1127.44	9913.66
1129.07	9111.74
1130.69	8141.43
1132.31	7155.94
1133.94	6085.10
1135.56	5119.85
1137.18	4172.72
1138.81	3410.00
1140.43	2761.72
1142.05	2288.58
1143.67	1908.17
1145.30	1638.40
1146.92	1434.18
1148.54	1304.78
1150.16	1195.19
1151.78	1127.11
1153.41	1077.37
1155.03	1051.03
1156.65	1029.11
1158.27	1020.68
1159.89	1001.50
1161.51	1005.09
1163.13	1000.87
1164.75	1002.35
1166.37	996.87
1168.00	1003.19
1169.62	1005.51
1171.24	1002.14
1172.86	997.50
1174.48	1012.67
1176.10	1009.93
1177.72	1010.99
1179.33	1013.94
1180.95	1023.42
1182.57	1019.21
1184.19	1033.75
1185.81	1023.00
1187.43	1044.08
1189.05	1033.96
1190.67	1055.67
1192.28	1040.07
1193.90	1061.78
1195.52	1060.94
1197.14	1078.85
1198.75	1079.90
1200.37	1095.50
1201.99	1097.61
1203.61	1110.04
1205.22	1125.22
1206.84	1132.17
1208.46	1144.82
1210.07	1152.19
1211.69	1161.04
1213.30	1187.39
1214.92	1181.49
1216.53	1212.26
1218.15	1206.78
1219.76	1226.17
1221.38	1230.38
1222.99	1252.30
1224.61	1261.57
1226.22	1288.76
1227.84	1285.18
1229.45	1306.67
1231.06	1311.10
1232.68	1334.28
1234.29	1341.03
1235.90	1362.52
1237.52	1376.43
1239.13	1400.46
1240.74	1404.46
1242.35	1427.65
1243.96	1436.92
1245.58	1459.47
1247.19	1464.74
1248.80	1475.91
1250.41	1495.93
1252.02	1517.64
1253.63	1522.70
1255.24	1539.14
1256.85	1545.04
1258.46	1563.79
1260.07	1565.69
1261.68	1590.35
1263.29	1590.98
1264.90	1613.53
1266.51	1612.90
1268.11	1626.39
1269.72	1611.00
1271.33	1640.30
1272.94	1628.92
1274.55	1643.88
1276.15	1637.77
1277.76	1639.67
1279.37	1638.61
1280.97	1639.24
1282.58	1635.66
1284.18	1636.08
1285.79	1625.12
1287.40	1630.81
1289.00	1620.70
1290.61	1622.59
1292.21	1617.33
1293.81	1614.38
1295.42	1610.58
1297.02	1602.99
1298.63	1597.94
1300.23	1592.04
1301.83	1595.20
1303.43	1586.35
1305.04	1585.08
1306.64	1584.24
1308.24	1581.71
1309.84	1585.50
1311.44	1579.60
1313.04	1581.29
1314.64	1585.08
1316.24	1589.72
1317.84	1585.92
1319.44	1597.94
1321.04	1587.19
1322.64	1601.94
1324.24	1598.99
1325.84	1614.16
1327.44	1603.21
1329.04	1623.65
1330.63	1614.80
1332.23	1630.18
1333.83	1635.66
1335.42	1641.77
1337.02	1637.77
1338.62	1656.74
1340.21	1649.15
1341.81	1676.55
1343.40	1668.54
1345.00	1696.15
1346.59	1683.71
1348.19	1714.48
1349.78	1700.57
1351.37	1729.87
1352.97	1725.65
1354.56	1749.68
1356.15	1742.51
1357.75	1766.75
1359.34	1773.92
1360.93	1789.51
1362.52	1785.30
1364.11	1801.52
1365.70	1800.68
1367.29	1826.60
1368.88	1820.28
1370.47	1848.31
1372.06	1843.68
1373.65	1854.85
1375.24	1857.80
1376.83	1876.34
1378.41	1860.96
1380.00	1893.62
1381.59	1879.71
1383.17	1895.94
1384.76	1891.31
1386.35	1911.33
1387.93	1903.74
1389.52	1922.08
1391.10	1913.44
1392.69	1924.82
1394.27	1927.98
1395.85	1943.99
1397.44	1942.94
1399.02	1962.12
1400.60	1962.75
1402.19	1967.81
1403.77	1962.33
1405.35	1987.41
1406.93	1975.40
1408.51	1990.99
1410.09	1988.89
1411.67	2007.01
1413.25	1994.58
1414.83	2012.70
1416.41	1997.53
1417.99	2013.33
1419.56	2000.06
1421.14	2018.60
1422.72	2003.43
1424.30	2017.76
1425.87	2008.70
1427.45	2016.70
1429.02	2002.16
1430.60	2017.34
1432.17	1999.84
1433.75	2023.66
1435.32	1993.10
1436.90	2019.23
1438.47	1993.94
1440.04	2013.54
1441.61	1995.63
1443.19	2009.96
1444.76	1995.84
1446.33	2004.69
1447.90	1994.58
1449.47	2000.90
1451.04	1994.15
1452.61	1999.21
1454.18	1989.73
1455.75	1994.36
1457.31	1972.45
1458.88	1992.05
1460.45	1966.12
1462.02	1977.72
1463.58	1957.69
1465.15	1973.08
1466.71	1946.10
1468.28	1962.96
1469.84	1939.99
1471.41	1955.80
1472.97	1943.15
1474.53	1963.38
1476.10	1938.94
1477.66	1964.44
1479.22	1938.73
1480.78	1973.71
1482.34	1949.68
1483.90	1978.56
1485.46	1957.69
1487.02	1979.19
1488.58	1969.71
1490.14	1985.93
1491.70	1976.45
1493.26	1998.37
1494.82	1982.98
1496.37	1997.95
1497.93	1991.84
1499.48	2009.33
1501.04	1998.16
1502.59	2014.18
1504.15	2007.01
1505.70	2020.50
1507.26	2005.11
1508.81	2024.92
1510.36	2007.01
1511.91	2022.18
1513.46	2005.11
1515.02	2020.08
1516.57	2006.80
1518.12	2013.96
1519.67	1998.58
1521.22	2008.27
1522.76	1997.95
1524.31	2001.53
1525.86	1998.16
1527.41	1995.00
1528.95	1995.63
1530.50	2004.69
1532.04	2003.85
1533.59	2013.33
1535.13	1996.26
1536.68	2020.71
1538.22	1999.42
1539.76	2031.25
1541.31	2004.69
1542.85	2031.25
1544.39	2015.23
1545.93	2031.25
1547.47	2022.40
1549.01	2039.04
1550.55	2027.66
1552.09	2047.69
1553.63	2023.45
1555.17	2052.53
1556.70	2025.13
1558.24	2047.47
1559.78	2030.83
1561.31	2042.00
1562.85	2023.87
1564.38	2037.99
1565.91	2027.03
1567.45	2037.15
1568.98	2019.44
1570.51	2029.56
1572.04	2008.06
1573.58	2027.03
1575.11	2008.27
1576.64	2021.55
1578.17	2003.64
1579.70	2014.81
1581.22	2001.53
1582.75	2018.81
1584.28	1996.05
1585.81	2013.96
1587.33	1990.78
1588.86	2012.70
1590.38	1987.83
1591.91	2001.53
1593.43	1980.24
1594.95	1995.63
1596.48	1981.93
1598.00	2000.27
1599.52	1982.14
1601.04	1994.15
1602.56	1975.61
1604.08	1998.58
1605.60	1965.91
1607.12	1983.83
1608.64	1962.75
1610.16	1989.73
1611.67	1958.75
1613.19	1977.08
1614.71	1956.01
1616.22	1970.55
1617.74	1954.95
1619.25	1961.70
1620.76	1950.53
1622.28	1956.43
1623.79	1934.30
1625.30	1950.95
1626.81	1930.51
1628.32	1943.15
1629.83	1922.08
1631.34	1944.63
1632.85	1924.39
1634.36	1931.77
1635.86	1915.75
1637.37	1929.87
1638.88	1908.59
1640.38	1932.19
1641.89	1906.48
1643.39	1908.80
1644.89	1893.84
1646.40	1902.48
1647.90	1877.61
1649.40	1883.30
1650.90	1860.54
1652.40	1860.96
1653.90	1833.98
1655.40	1840.94
1656.90	1818.17
1658.40	1823.44
1659.90	1801.31
1661.39	1796.26
1662.89	1780.24
1664.38	1784.03
1665.88	1758.32
1667.37	1768.23
1668.87	1744.20
1670.36	1747.57
1671.85	1733.87
1673.34	1726.29
1674.83	1716.17
1676.32	1721.86
1677.81	1702.26
1679.30	1710.69
1680.79	1694.46
1682.28	1706.05
1683.76	1691.72
1685.25	1702.26
1686.74	1692.78
1688.22	1700.15
1689.70	1686.87
1691.19	1703.95
1692.67	1683.71
1694.15	1699.52
1695.63	1684.13
1697.12	1696.57
1698.60	1683.08
1700.07	1696.36
1701.55	1684.98
1703.03	1706.47
1704.51	1678.02
1705.99	1704.58
1707.46	1681.82
