wine,descr
"Senorio de Prayla","The wine is made from two grape varieties: dominates Tempranillo, accompanies him Garnacha. Fermentation takes place at a temperature of 24-26 degrees. Excerpt is two years."
"Brengman Brothers","Lalala"
