wine,descr
"Chernomorskaya istina merlo kuban, sukhoye","Wine ""Chernomorskaya Istina"" Merlot has a special softness, excellent drinkability and refreshing notes of berries. For its production is used grapes grown in the Krymsk district. wine production technology consists of fermentation at a constant controlled temperature performance and aging of wine in vats. The classic recipe and high quality grapes make wine ""the Black Sea the Truth"" Merlot is very harmonious and attractive."
"Krymskiy Vinnyy zavod Merlo, polusladkoye","Made from red Merlot grapes. It has a color from red to ruby, harmonious, soft taste and aroma."
"Agora, Sladkoye ","Color of wine: Red, with a garnet hue. Aroma and taste: the Aroma is rich, with chocolate and fruit notes. The taste is full, velvety, with a delicate sweetness in the aftertaste. Gastronomic combinations: it is Recommended to serve with fruits, desserts, pastries, ice cream. Use chilled to 16-18 °C."
"Gelendzhik krasnoye, sukhoye","Wine ""Gelendzhik"" red Dry refers to the category of wines, which due to the high concentration of amino acids have a positive effect on the body. Grapes of red varieties grown in the Sunny climate of Gelendzhik, is the basis of the blend. In the process of fermentation is almost complete fermentation of sugar, while the wine is quite low strength, at the level of 9-11%."
"Vina tamani, kaberne, stolovoye sukhoye","The wine Cabernet ruby-pomegranate color, pure varietal flavor with light blackcurrant and nightshade tones. The taste is full, harmonious. Recommended for cheese, vegetable dishes, poultry.  Wine series ""Taman Wines"" are made from grapes grown in a unique climatic zone on the plantations of the Taman Peninsula, washed by the waters of the Azov and Black seas. The entire technological process of production, from planting, harvesting, processing and ending with the bottling of the finished wine in the bottle, is under strict control."
"Tamanskiy pogreb, sukhoye","Prepared according to the classic technology of red grape varieties. Color from light red to red. The aroma is complex, harmonious, clean. The taste is full, soft, harmonious."
"Krymskoye, polusladkoye","Crimean night is very original taste, because it is made from valuable grape varieties – ""Chardonnay"", ""Pinot"", ""Aligote"" and many others. This small plant thanks to the works of its founders received three silver and four gold medals at international competitions of cognacs and wines."
"Gelendzhik krasnoye, sukhoye, NEW","Wine ""Gelendzhik"" red Dry refers to the category of wines, which due to the high concentration of amino acids have a positive effect on the body. Grapes of red varieties grown in the Sunny climate of Gelendzhik, is the basis of the blend. In the process of fermentation is almost complete fermentation of sugar, while the wine is quite low strength, at the level of 9-11%."
"Vina tamani kaberne stolovoye, sukhoye, NEW","The wine Cabernet ruby-pomegranate color, pure varietal flavor with light blackcurrant and nightshade tones. The taste is full, harmonious. Recommended for cheese, vegetable dishes, poultry.  Wine series ""Taman Wines"" are made from grapes grown in a unique climatic zone on the plantations of the Taman Peninsula, washed by the waters of the Azov and Black seas. The entire technological process of production, from planting, harvesting, processing and ending with the bottling of the finished wine in the bottle, is under strict control."
"Tamanskiy pogreb, polusladkoye NEW","Prepared according to the classic technology of red grape varieties. Color from light red to red. The aroma is complex, harmonious, clean. The taste is full, soft, harmonious."
"Krymskoye, polusladkoye, NEW","Crimean night is very original taste, because it is made from valuable grape varieties – ""Chardonnay"", ""Pinot"", ""Aligote"" and many others. This small plant thanks to the works of its founders received three silver and four gold medals at international competitions of cognacs and wines."
